^C:\LABS\NIIT-TEST\SRC\VADIMTIMOFEEV\LAB1\TASK1\PROJECT1\PROJECT1\TASK1.C
C:\LABS\NIIT-TEST\SRC\VADIMTIMOFEEV\LAB1\TASK1\PROJECT1\PROJECT1\DEBUG\VC120.PDB
C:\LABS\NIIT-TEST\SRC\VADIMTIMOFEEV\LAB1\TASK1\PROJECT1\PROJECT1\DEBUG\VC120.IDB
C:\LABS\NIIT-TEST\SRC\VADIMTIMOFEEV\LAB1\TASK1\PROJECT1\PROJECT1\DEBUG\TASK1.OBJ
